{
 "enmca": [
  {
   "DESCRIPTION": "First enmca VERSION", 
   "VERSION": "0.0.1.190214", 
   "cell_status": "0.0.1.190214", 
   "cmlib": "0.0.1.190214", 
   "comlib": "0.0.1.190214"
  }, 
  {
   "DESCRIPTION": "Add fmlib and alarm_list module", 
   "VERSION": "0.0.2.190214", 
   "alarm_list": "0.0.1.190214", 
   "cell_status": "0.0.1.190214", 
   "cmlib": "0.0.1.190214", 
   "comlib": "0.0.2.190214", 
   "fmlib": "0.0.1.190214"
  }, 
  {
   "DESCRIPTION": "Add node_status module", 
   "VERSION": "0.0.2.190218", 
   "alarm_list": "0.0.1.190214", 
   "cell_status": "0.0.1.190214", 
   "cmlib": "0.0.2.190218", 
   "comlib": "0.0.2.190214", 
   "fmlib": "0.0.1.190214", 
   "node_status": "0.0.1.190218"
  }, 
  {
   "DESCRIPTION": "Updated node_status, cell_status, cmlib,module", 
   "VERSION": "0.0.2.190312", 
   "alarm_list": "0.0.1.190214", 
   "cell_status": "0.0.1.190312", 
   "cmlib": "0.0.2.190312", 
   "comlib": "0.0.2.190214", 
   "fmlib": "0.0.1.190214", 
   "node_status": "0.0.1.190312"
  }, 
  {
   "DESCRIPTION": "Updated alarm_list and fmlib module", 
   "VERSION": "0.0.2.190318", 
   "alarm_list": "0.0.1.190318", 
   "cell_status": "0.0.1.190312", 
   "cmlib": "0.0.2.190312", 
   "comlib": "0.0.2.190214", 
   "fmlib": "0.0.1.190318", 
   "node_status": "0.0.1.190312"
  }, 
  {
   "DESCRIPTION": "Updated alarm_list module", 
   "VERSION": "0.0.2.190319", 
   "alarm_list": "0.0.1.190319", 
   "cell_status": "0.0.1.190312", 
   "cmlib": "0.0.2.190312", 
   "comlib": "0.0.2.190214", 
   "fmlib": "0.0.1.190318", 
   "node_status": "0.0.1.190312"
  }, 
  {
   "DESCRIPTION": "Updated alarm_list/cell_status/node_statud house_keeping module to delete link file", 
   "VERSION": "0.0.2.190409", 
   "alarm_list": "0.0.1.190409", 
   "cell_status": "0.0.1.190409", 
   "cmlib": "0.0.2.190312", 
   "comlib": "0.0.2.190214", 
   "fmlib": "0.0.1.190318", 
   "node_status": "0.0.1.190409"
  }, 
  {
   "DESCRIPTION": "Add node_fdn module", 
   "VERSION": "0.0.2.190415", 
   "alarm_list": "0.0.1.190409", 
   "cell_status": "0.0.1.190409", 
   "cmlib": ".0.2.190415", 
   "comlib": "0.0.2.190214", 
   "fmlib": "0.0.1.190318", 
   "node_fnd": "0.0.1.190415", 
   "node_status": "0.0.1.190409"
  }, 
  {
   "DESCRIPTION": "update fmlib", 
   "VERSION": "0.0.2.190416", 
   "alarm_list": "0.0.1.190409", 
   "cell_status": "0.0.1.190409", 
   "cmlib": ".0.2.190415", 
   "comlib": "0.0.2.190214", 
   "fmlib": "0.0.1.19416", 
   "node_fnd": "0.0.1.190415", 
   "node_status": "0.0.1.190409"
  }, 
  {
   "DESCRIPTION": "update node_status and cmlib", 
   "VERSION": "0.0.2.190507", 
   "alarm_list": "0.0.1.190409", 
   "cell_status": "0.0.1.190409", 
   "cmlib": ".0.2.190507", 
   "comlib": "0.0.2.190214", 
   "fmlib": "0.0.1.19416", 
   "node_fnd": "0.0.1.190415", 
   "node_status": "0.0.1.190507"
  }, 
  {
   "DESCRIPTION": "Stable version", 
   "VERSION": "1.0.0.190917", 
   "alarm_list": "1.0.0.190917", 
   "cell_status": "1.0.0.190917", 
   "cmlib": ".1.0.0.190917", 
   "comlib": "1.0.0.190917", 
   "fmlib": "1.0.0.190917", 
   "node_fnd": "1.0.0.190917", 
   "node_status": "1.0.0.190917"
  }, 
  {
   "DESCRIPTION": "Add rru_status module", 
   "VERSION": "1.0.0.190920", 
   "alarm_list": "1.0.0.190917", 
   "cell_status": "1.0.0.190917", 
   "cmlib": "1.0.1.190918", 
   "comlib": "1.0.0.190917", 
   "fmlib": "1.0.0.190917", 
   "node_Status": "1.0.0.190917", 
   "rru_status": "0.0.1.190920"
  }, 
  {
   "DESCRIPTION": "update rru_status module", 
   "VERSION": "1.0.0.190924", 
   "alarm_list": "1.0.0.190917", 
   "cell_status": "1.0.0.190917", 
   "cmlib": "1.0.1.190918", 
   "comlib": "1.0.0.190917", 
   "fmlib": "1.0.0.190917", 
   "node_Status": "1.0.0.190917", 
   "rru_status": "0.0.1.190924"
  }
 ]
}