{
    "node_status": [
        {"version": "0.0.1.190218", "description": "First version to export node status"},
        {"version": "0.0.1.190312", "description": "Add sys.ini and house_keep.py, output file with unique system name and can link to other directory"},
        {"version": "0.0.1.190409", "description": "Update house_keeping module find link file to delete instead of regular file"},
        {"version": "0.0.1.190507", "description": "Update export_node_status"},
        {"version": "1.0.0.190917", "description": "Stable version"}
    ]
}