{
  "enm_bcgtool": [
    {"version": "0.0.1.190322", "description": "First version for ENM 17.16", "author": "Yingyi Tang"},
    {"version": "0.0.1.190604", "description": "First version for ENM 19.05", "author": "Yingyi Tang"},
    {"version": "0.0.1.190605", "description": "Catch export exception", "author": "Yingyi Tang"},
    {"version": "0.0.1.190903", "description": "Remove export job in ENM", "author": "Yingyi Tang"}
  ]
}